-------------------------------------------------------------------------------
Test set: guru.springframework.repositories.ProductRepositoryTest
-------------------------------------------------------------------------------
Tests run: 1, Failures: 0, Errors: 0, Skipped: 0, Time elapsed: 0.869 s - in guru.springframework.repositories.ProductRepositoryTest
