zagsoft/springframework/myspringpetclinic/MySpringPetClinicApplicationTests.class
zagsoft/springframework/myspringpetclinic/service/springdatajpa/OwnerSpringDataJpaServiceTest.class
zagsoft/springframework/myspringpetclinic/service/map/OwnerMapServiceTest.class
zagsoft/springframework/myspringpetclinic/controller/OwnerControllerTest.class
