/home/dev/Code/courses/springframeworkguru/my-spring-petclinic/pet-clinic-web/src/test/java/zagsoft/springframework/myspringpetclinic/service/springdatajpa/OwnerSpringDataJpaServiceTest.java
/home/dev/Code/courses/springframeworkguru/my-spring-petclinic/pet-clinic-web/src/test/java/zagsoft/springframework/myspringpetclinic/service/map/OwnerMapServiceTest.java
/home/dev/Code/courses/springframeworkguru/my-spring-petclinic/pet-clinic-web/src/test/java/zagsoft/springframework/myspringpetclinic/controller/OwnerControllerTest.java
/home/dev/Code/courses/springframeworkguru/my-spring-petclinic/pet-clinic-web/src/test/java/zagsoft/springframework/myspringpetclinic/MySpringPetClinicApplicationTests.java
