-------------------------------------------------------------------------------
Test set: zagsoft.springframework.myspringpetclinic.service.springdatajpa.OwnerSpringDataJpaServiceTest
-------------------------------------------------------------------------------
Tests run: 6, Failures: 0, Errors: 0, Skipped: 0, Time elapsed: 0.11 s - in zagsoft.springframework.myspringpetclinic.service.springdatajpa.OwnerSpringDataJpaServiceTest
