-------------------------------------------------------------------------------
Test set: zagsoft.springframework.myspringpetclinic.MySpringPetClinicApplicationTests
-------------------------------------------------------------------------------
Tests run: 1, Failures: 0, Errors: 0, Skipped: 0, Time elapsed: 4.518 s - in zagsoft.springframework.myspringpetclinic.MySpringPetClinicApplicationTests
