guru/springframework/model/UnitOfMeasure.class
guru/springframework/Spring5RecipeAppApplication.class
guru/springframework/repository/RecipeRepository.class
guru/springframework/controller/RecipeController.class
guru/springframework/model/Note.class
guru/springframework/model/Difficulty.class
guru/springframework/service/RecipeService.class
guru/springframework/controller/IndexController.class
guru/springframework/repository/UnitOfMeasureRepository.class
guru/springframework/model/Category.class
guru/springframework/model/Recipe$Builder.class
guru/springframework/repository/CategoryRepository.class
guru/springframework/model/Ingredient.class
guru/springframework/model/Recipe.class
guru/springframework/bootstrap/DataLoader.class
guru/springframework/service/RecipeServiceImpl.class
